= Dive Into Python 3
:doctype:   book
:docinfo:
:toc:
:toclevels: 2

[preface]
== Preface by Someone Sincere

Placeholder for something interesting.


[preface]
== Dedications

_This is to my kids, whose time has been sacrificed in learning how to edit such books. — A father_


